{"openapi":"3.1.0","info":{"title":"Integração SIRC API","description":"API para integração e cruzamento de dados SIRC x SIGPES","contact":{"name":"CCA-RJ","email":"paulosergiopscm@fab.mil.br"},"version":"1.0"},"servers":[{"url":"http://localhost:8080","description":"Local"},{"url":"https://sta.fab.mil.br","description":"Homologação"},{"url":"https://prd.fab.mil.br","description":"Produção"}],"tags":[{"name":"Files","description":"Endpoints para gerenciamento do ciclo de vida de arquivos SIRC (upload, consulta, agendamento, processamento e exclusão)"},{"name":"Crossings","description":"Endpoints para consulta de cruzamentos individuais entre registros de óbito SIRC e o SIGPES"},{"name":"Audit","description":"Endpoints para auditoria de matching (processamento on-demand)"},{"name":"File Crossings","description":"Endpoints para consulta de estatísticas agregadas de cruzamentos por arquivo processado"}],"paths":{"/api/v1/files/{fileId}/schedule":{"post":{"tags":["Files"],"summary":"Agenda processamento de arquivo","description":"Define uma data futura para processamento automático do arquivo.\n\n**Validações:**\n- Data deve ser futura (não pode ser no passado)\n- Arquivo deve estar no status UPLOADED\n\n**Comportamento:**\n- Status alterado para SCHEDULED\n- Processamento será executado automaticamente na data agendada\n- Pode ser reagendado antes da execução\n","operationId":"scheduleFile","parameters":[{"name":"fileId","in":"path","description":"UUID do arquivo a ser agendado","required":true,"schema":{"type":"string","format":"uuid"},"example":"550e8400-e29b-41d4-a716-446655440000"}],"requestBody":{"description":"Data de agendamento","content":{"application/json":{"schema":{"$ref":"#/components/schemas/ScheduleRequest"},"example":{"scheduledDate":"2024-12-31"}}},"required":true},"responses":{"200":{"description":"Arquivo agendado com sucesso"},"400":{"description":"Data inválida ou no passado, ou arquivo em status inadequado"},"404":{"description":"Arquivo não encontrado com o ID fornecido"}}}},"/api/v1/files/{fileId}/process":{"post":{"tags":["Files"],"summary":"Processa arquivo imediatamente","description":"Inicia o processamento imediato do arquivo SIRC, executando o cruzamento\nentre registros de óbito e beneficiários SIGPES.\n\n**Operações executadas:**\n1. Validação de integridade do arquivo XML\n2. Parsing e normalização dos registros de óbito\n3. Aplicação de algoritmos de matching:\n   - Jaro-Winkler para similaridade de strings\n   - Damerau-Levenshtein para nomes\n   - Comparação exata de CPF e datas\n4. Cálculo de scores e níveis de evidência\n5. Persistência dos resultados (FileCrossing e Crossing)\n6. Atualização de status do arquivo\n\n**Atenção:**\n- Operação pode demorar dependendo do tamanho do arquivo\n- Processamento é assíncrono\n- Arquivo com 10.000 registros leva aproximadamente 2-5 minutos\n\n**Status possíveis após processamento:**\n- PROCESSED: Processamento concluído com sucesso\n- ERROR: Erro durante o processamento\n","operationId":"processFile","parameters":[{"name":"fileId","in":"path","description":"UUID do arquivo a ser processado","required":true,"schema":{"type":"string","format":"uuid"},"example":"550e8400-e29b-41d4-a716-446655440000"}],"responses":{"202":{"description":"Processamento iniciado com sucesso (operação assíncrona)"},"400":{"description":"Arquivo em status inadequado para processamento ou falha na validação de integridade"},"404":{"description":"Arquivo não encontrado com o ID fornecido"},"500":{"description":"Erro interno durante o processamento"}}}},"/api/v1/files/upload":{"post":{"tags":["Files"],"summary":"Upload de arquivos XML SIRC","description":"            Realiza upload de um ou mais arquivos XML contendo registros de óbito do SIRC.\n            **IMPORTANTE**: os arquivos devem estar com o nome original fornecido pelo SIRC.\n\n            **Validações aplicadas:**\n            - Máximo de 7 arquivos por requisição\n            - Tamanho máximo de 30MB por arquivo\n            - Apenas arquivos com extensão .xml\n            - CPF do usuário é obrigatório (11 dígitos)\n\n            **Processamento:**\n            - Arquivos são validados quanto a extensão e tamanho\n            - Metadados são extraídos e armazenados\n            - Status inicial: SALVO\n            - Arquivos ficam disponíveis para agendamento ou processamento imediato\n\n            **Exemplo de uso com curl:**\n```bash\n            curl -X POST http://localhost:8080/api/v1/files/upload \\\n              -H \"Content-Type: multipart/form-data\" \\\n              -F \"files=@D.SRC.OBI.000.20250920.xml\" \\\n              -F \"files=@D.SRC.OBI.000.20250921.xml\" \\\n              -F \"uploadedBy=12345678901\"\n```\n","operationId":"uploadFiles","parameters":[{"name":"uploadedBy","in":"query","description":"CPF do usuário responsável pelo upload (11 dígitos)","required":true,"schema":{"type":"string"},"example":12345678901}],"requestBody":{"content":{"multipart/form-data":{"schema":{"type":"object","properties":{"files":{"type":"array","description":"Lista de arquivos XML SIRC (máx 7 arquivos, 30MB cada)","items":{"type":"string","format":"binary"}}},"required":["files"]}}}},"responses":{"201":{"description":"Upload realizado com sucesso"},"400":{"description":"Validação falhou (número de arquivos, tamanho, formato ou CPF inválido)"},"413":{"description":"Tamanho do arquivo excede o limite permitido (30MB)"},"415":{"description":"Tipo de mídia não suportado (apenas .xml permitido)"}}}},"/api/v1/audit/matching":{"post":{"tags":["Audit"],"summary":"Solicita auditoria de matching para pessoa específica","description":"**🔍 O que faz:** Executa processamento completo de matching sob demanda\npara UMA pessoa específica contra TODOS os arquivos de um período.\n\n**⚙️ Processamento:**\n- Carrega pessoa pessoa por banco de dados\n- Para cada arquivo do mês: processa ~10k óbitos vs pessoa\n- Aplica algoritmo de matching completo (Jaro-Winkler, Damerau-Levenshtein, sliding window do CPF, etc)\n- Retorna TODOS os resultados (sem filtro de threshold)\n\n**📊 Performance:**\n- Típico: 30-60 segundos para mês completo\n- Volume: ~300k comparações para arquivo mensal\n- CPU: Alto durante processamento\n- Memória: ~100-200 MB pico\n\n**🎯 Casos de uso:**\n- Investigar \"por que pessoa X não cruzou com óbito Y?\"\n- Análise de qualidade do algoritmo\n- Validação de ajustes em thresholds/pesos\n- Auditoria de casos pontuais\n\n**⚠️ Importante:**\n- Operação custosa - não usar em loops\n- Não persiste nenhum dado\n- Recomendado: uso pontual para análise\n","operationId":"auditPersonMatching","requestBody":{"content":{"application/json":{"schema":{"$ref":"#/components/schemas/AuditMatchingRequest"}}},"required":true},"responses":{"200":{"description":"Auditoria executada com sucesso","content":{"application/json":{"schema":{"$ref":"#/components/schemas/AuditReport"}}}},"404":{"description":"Pessoa não encontrada ou sem arquivos para o período"},"400":{"description":"Parâmetros inválidos no request body"},"500":{"description":"Erro interno durante processamento"}}}},"/api/v1/files":{"get":{"tags":["Files"],"summary":"Lista arquivos SIRC","description":"            Retorna uma lista paginada de arquivos SIRC com suporte a filtros dinâmicos.\n\n            **Parâmetros de query aceitos:**\n            - `fileName`: Filtro por nome do arquivo (busca parcial, case-insensitive)\n            - `status`: Filtro por status (UPLOADED, SCHEDULED, PROCESSING, PROCESSED, ERROR, DELETED)\n            - `uploadedBy`: Filtro por CPF do usuário que fez upload\n            - `uploadDateFrom`: Data inicial do período de upload (formato: yyyy-MM-dd)\n            - `uploadDateTo`: Data final do período de upload (formato: yyyy-MM-dd)\n            - `page`: Número da página (inicia em 0)\n            - `size`: Tamanho da página (padrão: 20)\n            - `sort`: Ordenação (ex: uploadDate,desc ou fileName,asc)\n\n            **Exemplo de requisição com filtros:**\n```\n            GET /api/v1/files?fileName=sirc&status=PROCESSADO&page=0&size=20&sort=uploadDate,desc\n```\n","operationId":"getFiles","parameters":[{"name":"fileName","in":"query","description":"Nome do arquivo SIRC (busca parcial, case-insensitive)","required":false,"schema":{"type":"string","description":"Nome do arquivo SIRC (busca parcial, case-insensitive)","example":"D.SRC.OBI.000.20250920","maxLength":30,"minLength":0},"example":"D.SRC.OBI.000.20250920"},{"name":"startMonthYear","in":"query","description":"Mês/ano inicial do período de upload/processamento","required":false,"schema":{"type":"string","format":"year-month","description":"Mês/ano inicial do período de upload/processamento","example":"2024-01","pattern":"^\\d{4}-(0[1-9]|1[0-2])$"},"example":"2024-01"},{"name":"endMonthYear","in":"query","description":"Mês/ano final do período de upload/processamento","required":false,"schema":{"type":"string","format":"year-month","description":"Mês/ano final do período de upload/processamento","example":"2024-12","pattern":"^\\d{4}-(0[1-9]|1[0-2])$"},"example":"2024-12"},{"name":"status","in":"query","description":"Status do arquivo no sistema","required":false,"schema":{"type":"string","description":"Status do arquivo no sistema","enum":["SALVO","EXTRAINDO","EXTRAIDO","AGENDADO","EM_CRUZAMENTO","CRUZADO","ERRO","DELETADO"],"example":"SALVO"},"example":"SALVO"},{"name":"page","in":"query","description":"Zero-based page index (0..N)","required":false,"schema":{"type":"integer","default":0,"minimum":0}},{"name":"size","in":"query","description":"The size of the page to be returned","required":false,"schema":{"type":"integer","default":20,"minimum":1}},{"name":"sort","in":"query","description":"Sorting criteria in the format: property,(asc|desc). Default sort order is ascending. Multiple sort criteria are supported.","required":false,"schema":{"type":"array","items":{"type":"string"}}}],"responses":{"200":{"description":"Lista de arquivos retornada com sucesso","content":{"application/json":{"schema":{"$ref":"#/components/schemas/Page"}}}},"400":{"description":"Parâmetros de consulta inválidos"}}}},"/api/v1/file-crossings":{"get":{"tags":["File Crossings"],"summary":"Lista estatísticas agregadas de cruzamentos por arquivo","description":"            Retorna estatísticas consolidadas de processamento de arquivos SIRC,\n            fornecendo visão executiva dos resultados sem necessidade de analisar\n            cada match individual.\n\n            **Informações retornadas por arquivo:**\n            - ID e nome do arquivo\n            - Data e horário do processamento\n            - Total de registros processados\n            - Total de matches encontrados\n            - Distribuição por nível de evidência:\n              * ALTA: Matches com alto grau de certeza\n              * MÉDIA: Matches com grau moderado de certeza\n              * BAIXA: Matches com grau baixo de certeza\n            - Estatísticas de campos correspondentes:\n              * Quantidade de matches por CPF\n              * Quantidade de matches por nome\n              * Quantidade de matches por data de nascimento\n            - Tempo de processamento em segundos\n\n            **Parâmetros de query aceitos:**\n            - `fileId`: Filtro por ID do arquivo (UUID)\n            - `fileName`: Filtro por nome do arquivo (busca parcial)\n            - `monthYear`: Filtro por mês/ano de referência (formato: yyyy-MM)\n            - `crossingDateFrom`: Data inicial do período de processamento\n            - `crossingDateTo`: Data final do período de processamento\n            - `page`: Número da página (inicia em 0)\n            - `size`: Tamanho da página (padrão: 20)\n            - `sort`: Ordenação (ex: crossingDate,desc)\n\n            **Casos de uso:**\n            - Dashboards executivos com KPIs de processamento\n            - Monitoramento de qualidade dos arquivos recebidos\n            - Análise de tendências de matches ao longo do tempo\n            - Identificação de arquivos com anomalias\n            - Relatórios gerenciais mensais\n\n            **Diferença entre FileCrossing e Crossing:**\n            - **FileCrossing**: Visão agregada/estatística por arquivo (este endpoint)\n            - **Crossing**: Visão detalhada registro a registro (/api/v1/crossings)\n\n            **Exemplo de requisição simples:**\n```\n            GET /api/v1/file-crossings?page=0&size=20&sort=crossingDate,desc\n```\n\n            **Exemplo com filtros:**\n```\n            GET /api/v1/file-crossings?fileName=sirc_202401&monthYear=2024-01&page=0&size=20\n```\n","operationId":"getFileCrossings","parameters":[{"name":"fileId","in":"query","description":"UUID do arquivo SIRC processado","required":false,"schema":{"type":"string","format":"uuid","description":"UUID do arquivo SIRC processado","example":"550e8400-e29b-41d4-a716-446655440000"},"example":"550e8400-e29b-41d4-a716-446655440000"},{"name":"fileName","in":"query","description":"Nome do arquivo SIRC (busca parcial, case-insensitive)","required":false,"schema":{"type":"string","description":"Nome do arquivo SIRC (busca parcial, case-insensitive)","example":"D.SRC.OBI.000.20250920","maxLength":30,"minLength":0},"example":"D.SRC.OBI.000.20250920"},{"name":"startMonthYear","in":"query","description":"Mês/ano inicial do período de consulta (referência do arquivo)","required":false,"schema":{"type":"string","format":"year-month","description":"Mês/ano inicial do período de consulta (referência do arquivo)","example":"2024-01","pattern":"^\\d{4}-(0[1-9]|1[0-2])$"},"example":"2024-01"},{"name":"endMonthYear","in":"query","description":"Mês/ano final do período de consulta (referência do arquivo)","required":false,"schema":{"type":"string","format":"year-month","description":"Mês/ano final do período de consulta (referência do arquivo)","example":"2024-12","pattern":"^\\d{4}-(0[1-9]|1[0-2])$"},"example":"2024-12"},{"name":"page","in":"query","description":"Zero-based page index (0..N)","required":false,"schema":{"type":"integer","default":0,"minimum":0}},{"name":"size","in":"query","description":"The size of the page to be returned","required":false,"schema":{"type":"integer","default":20,"minimum":1}},{"name":"sort","in":"query","description":"Sorting criteria in the format: property,(asc|desc). Default sort order is ascending. Multiple sort criteria are supported.","required":false,"schema":{"type":"array","items":{"type":"string"}}}],"responses":{"200":{"description":"Estatísticas de cruzamentos retornadas com sucesso","content":{"application/json":{"schema":{"$ref":"#/components/schemas/Page"},"examples":{"Exemplo de resposta":{"description":"Exemplo de resposta","value":{"content":[{"fileId":"550e8400-e29b-41d4-a716-446655440000","fileName":"sirc_janeiro_2024.xml","crossingDate":"2024-01-15T14:30:00","totalRecords":15000,"totalMatches":342,"highEvidenceCount":280,"mediumEvidenceCount":45,"lowEvidenceCount":17,"cpfMatchCount":280,"nameMatchCount":342,"birthDateMatchCount":315,"processingTimeSeconds":125}],"pageable":{"pageNumber":0,"pageSize":20,"sort":{"sorted":true,"unsorted":false,"empty":false}},"totalElements":45,"totalPages":3,"last":false,"first":true,"numberOfElements":20,"size":20,"number":0}}}}}},"400":{"description":"Parâmetros de consulta inválidos"}}}},"/api/v1/crossings":{"get":{"tags":["Crossings"],"summary":"Lista cruzamentos individuais","description":"Retorna uma lista paginada de cruzamentos individuais entre registros de óbito do SIRC\ne pessoal incluso no último pagamento do SIGPES, com informações detalhadas sobre scores de matching e\ncampos correspondentes.\n\n**Informações retornadas:**\n- ID do cruzamento\n- Dados do arquivo de origem\n- Níveis de matching do campos (nome, filiação, data de nascimento, CPF)\n- Nível de evidência total\n- Data do cruzamento\n\n**Filtros disponíveis:**\n- fileId: ID do arquivo processado\n- fileName: Nome do arquivo (busca parcial)\n- crossingDateFrom/To: Período de processamento\n- evidenceLevel: Nível de evidência do match\n- CPF, Nome, Data de Nascimento, Filiação: Filtros específicos por campo\n- Saram\n","operationId":"getCrossings","parameters":[{"name":"fileCrossingId","in":"query","description":"ID do cruzamento de arquivo (FileCrossing) associado","required":false,"schema":{"type":"string","format":"uuid","description":"ID do cruzamento de arquivo (FileCrossing) associado","example":"550e8400-e29b-41d4-a716-446655440000"},"example":"550e8400-e29b-41d4-a716-446655440000"},{"name":"fileName","in":"query","description":"Nome do arquivo de origem (busca parcial, case-insensitive)","required":false,"schema":{"type":"string","description":"Nome do arquivo de origem (busca parcial, case-insensitive)","example":"D.SRC.OBI.000.20250920","maxLength":30,"minLength":0},"example":"D.SRC.OBI.000.20250920"},{"name":"cpf","in":"query","description":"CPF do beneficiário para busca (apenas dígitos, busca com LIKE, mínimo 5 dígitos)","required":false,"schema":{"type":"string","description":"CPF do beneficiário para busca (apenas dígitos, busca com LIKE, mínimo 5 dígitos)","example":12345678901,"maxLength":11,"minLength":5,"pattern":"^\\d+$"},"example":12345678901},{"name":"orderNumber","in":"query","description":"Número de ordem do beneficiário (exatamente 7 dígitos)","required":false,"schema":{"type":"string","description":"Número de ordem do beneficiário (exatamente 7 dígitos)","example":1234567,"pattern":"^\\d{7}$"},"example":1234567},{"name":"deceasedName","in":"query","description":"Nome do falecido (busca parcial, apenas letras, espaços, hífens e apóstrofos)","required":false,"schema":{"type":"string","description":"Nome do falecido (busca parcial, apenas letras, espaços, hífens e apóstrofos)","example":"JOÃO DA SILVA","maxLength":200,"minLength":3,"pattern":"^[\\p{L}\\s'-]*$"},"example":"JOÃO DA SILVA"},{"name":"birthDate","in":"query","description":"Data de nascimento do falecido","required":false,"schema":{"type":"string","format":"year-month-day","description":"Data de nascimento do falecido","example":"1980-05-15","pattern":"^\\d{4}-(0[1-9]|1[0-2])-(0[1-9]|[12]\\d|3[01])$"},"example":"1980-05-15"},{"name":"parentName","in":"query","description":"Nome de filiação (mãe ou pai) do falecido (busca parcial)","required":false,"schema":{"type":"string","description":"Nome de filiação (mãe ou pai) do falecido (busca parcial)","example":"MARIA SILVA","maxLength":200,"minLength":3,"pattern":"^[\\p{L}\\s'-]*$"},"example":"MARIA SILVA"},{"name":"exactFieldSet","in":"query","description":"Conjunto de campos que devem ter match exato (filtro combinado com AND)","required":false,"schema":{"type":"array","description":"Conjunto de campos que devem ter match exato (filtro combinado com AND)","example":["CPF","NOME"],"items":{"type":"string","description":"Conjunto de campos que devem ter match exato (filtro combinado com AND)","enum":["CPF","NOME","NASCIMENTO","FILIACAO_1","FILIACAO_2"],"example":["CPF","NOME"]},"maxItems":4,"minItems":0,"uniqueItems":true},"example":["CPF","NOME"]},{"name":"evidenceLevelSet","in":"query","description":"Conjunto de níveis de evidência aceitos (filtro combinado com OR)","required":false,"schema":{"type":"array","description":"Conjunto de níveis de evidência aceitos (filtro combinado com OR)","example":["ALTA","MEDIA"],"items":{"type":"string","description":"Conjunto de níveis de evidência aceitos (filtro combinado com OR)","enum":["EXATA","EXCELENTE","MUITO_ALTA","ALTA","MEDIA","BAIXA","MUITO_BAIXA"],"example":["ALTA","MEDIA"]},"maxItems":6,"minItems":0,"uniqueItems":true},"example":["ALTA","MEDIA"]},{"name":"startMonthYear","in":"query","description":"Mês/ano inicial do período de consulta (referência do arquivo)","required":false,"schema":{"type":"string","format":"year-month","description":"Mês/ano inicial do período de consulta (referência do arquivo)","example":"2024-01","pattern":"^\\d{4}-(0[1-9]|1[0-2])$"},"example":"2024-01"},{"name":"endMonthYear","in":"query","description":"Mês/ano final do período de consulta (referência do arquivo)","required":false,"schema":{"type":"string","format":"year-month","description":"Mês/ano final do período de consulta (referência do arquivo)","example":"2024-12","pattern":"^\\d{4}-(0[1-9]|1[0-2])$"},"example":"2024-12"},{"name":"page","in":"query","description":"Zero-based page index (0..N)","required":false,"schema":{"type":"integer","default":0,"minimum":0}},{"name":"size","in":"query","description":"The size of the page to be returned","required":false,"schema":{"type":"integer","default":20,"minimum":1}},{"name":"sort","in":"query","description":"Sorting criteria in the format: property,(asc|desc). Default sort order is ascending. Multiple sort criteria are supported.","required":false,"schema":{"type":"array","items":{"type":"string"}}}],"responses":{"200":{"description":"Lista de cruzamentos retornada com sucesso","content":{"application/json":{"schema":{"$ref":"#/components/schemas/Page"}}}},"400":{"description":"Parâmetros de consulta inválidos"}}}},"/api/v1/crossings/{id}/death-details":{"get":{"tags":["Crossings"],"summary":"Obtém detalhes do óbito associado ao cruzamento","description":"Retorna informações completas do registro de óbito (SIRC) associado ao cruzamento, incluindo:\n- Data da operação no SIRC\n- Data de lavratura da certidão de óbito\n- codigo ibge do município de óbito\n- Outros campos do registro SIRC\n","operationId":"getDeathDetails","parameters":[{"name":"id","in":"path","description":"UUID do cruzamento","required":true,"schema":{"type":"string","format":"uuid"},"example":"550e8400-e29b-41d4-a716-446655440000"}],"responses":{"200":{"description":"Detalhes do óbito retornados com sucesso","content":{"application/json":{"schema":{"$ref":"#/components/schemas/DeathDetailsDTO"}}}},"404":{"description":"Cruzamento não encontrado com o ID fornecido"},"400":{"description":"ID inválido"}}}},"/api/v1/crossings/{id}/crossing-details":{"get":{"tags":["Crossings"],"summary":"Obtém detalhes de um cruzamento específico","description":"Retorna informações detalhadas de um cruzamento específico, incluindo:\n- Dados completos da pessoa no SIGPES\n- Scores de similaridade por campo\n","operationId":"getCrossingDetails","parameters":[{"name":"id","in":"path","description":"UUID do cruzamento","required":true,"schema":{"type":"string","format":"uuid"},"example":"550e8400-e29b-41d4-a716-446655440000"}],"responses":{"200":{"description":"Detalhes do cruzamento retornados com sucesso","content":{"application/json":{"schema":{"$ref":"#/components/schemas/CrossingDetailsDTO"}}}},"404":{"description":"Cruzamento não encontrado com o ID fornecido"},"400":{"description":"ID inválido"}}}},"/api/v1/files/{fileId}":{"delete":{"tags":["Files"],"summary":"Exclui arquivo SIRC","description":"Realiza exclusão lógica (soft delete) de um arquivo SIRC.\nO arquivo permanece no banco de dados com status DELETED.\n\n**Restrições:**\n- Arquivo não pode estar em processamento (status PROCESSING)\n- Arquivo já excluído não pode ser excluído novamente\n\n**Efeitos:**\n- Status alterado para DELETED\n- Arquivo não aparece mais em listagens padrão\n- Cruzamentos associados são mantidos para auditoria\n","operationId":"deleteFile","parameters":[{"name":"fileId","in":"path","description":"UUID do arquivo a ser excluído","required":true,"schema":{"type":"string","format":"uuid"},"example":"550e8400-e29b-41d4-a716-446655440000"}],"responses":{"204":{"description":"Arquivo excluído com sucesso"},"404":{"description":"Arquivo não encontrado com o ID fornecido"},"400":{"description":"Arquivo não pode ser excluído devido ao status atual"}}}}},"components":{"schemas":{"ScheduleRequest":{"type":"object","description":"Request para agendamento de processamento","properties":{"scheduledDate":{"type":"string","format":"date","description":"Data futura para processamento automático","example":"2024-12-31"}}},"AuditMatchingRequest":{"type":"object","description":"Request para auditoria de matching de uma pessoa específica","properties":{"orderNumber":{"type":"string","description":"Número de ordem (SARAM) da pessoa","example":123456,"minLength":1},"yearMonth":{"type":"string","description":"Ano-mês de referência no formato yyyy-MM","example":"2024-03","pattern":"^\\d{4}-\\d{2}$"}},"required":["orderNumber","yearMonth"]},"AdditionalSircInfo":{"type":"object","properties":{"executionDate":{"type":"string","format":"date"},"operationDateTime":{"type":"string","format":"date-time"},"operationType":{"type":"string","enum":["INSERCAO","ALTERACAO","EXCLUSAO"]},"registrationCode":{"type":"string"},"declarationNumberDeceased":{"type":"string"},"deceasedCertificateIdentifier":{"type":"string"},"registryOfficeCode":{"type":"string"},"ibgeMunicipalityCodeRegistryOffice":{"type":"string"}}},"AuditFileResult":{"type":"object","properties":{"fileId":{"type":"string","format":"uuid"},"fileName":{"type":"string"},"referenceDate":{"type":"string","format":"date"},"totalDeceased":{"type":"integer","format":"int32"},"matches":{"type":"array","items":{"$ref":"#/components/schemas/AuditMatchResult"}},"processingTimeMs":{"type":"integer","format":"int64"},"matchCount":{"type":"integer","format":"int32"}}},"AuditMatchResult":{"type":"object","properties":{"deceased":{"$ref":"#/components/schemas/Deceased"},"score":{"$ref":"#/components/schemas/MatchingScore"},"matchReasons":{"type":"array","items":{"type":"string","enum":["CPF Exato","CPF Sliding Window","Data de Nascimento","Tuplas de Nome","Múltiplos Critérios"]},"uniqueItems":true},"formattedReasons":{"type":"string"}}},"AuditReport":{"type":"object","properties":{"auditedSaram":{"type":"string"},"auditedPerson":{"$ref":"#/components/schemas/Person"},"auditedPaymentInfo":{"$ref":"#/components/schemas/PaymentInfo"},"periodStart":{"type":"string","format":"date"},"periodEnd":{"type":"string","format":"date"},"fileResults":{"type":"array","items":{"$ref":"#/components/schemas/AuditFileResult"}},"totalFiles":{"type":"integer","format":"int32"},"totalDeceased":{"type":"integer","format":"int32"},"totalMatches":{"type":"integer","format":"int32"},"totalProcessingTimeMs":{"type":"integer","format":"int64"},"executedAt":{"type":"string","format":"date-time"},"conversionRate":{"type":"number","format":"double"},"averageProcessingTimePerFile":{"type":"integer","format":"int64"}}},"CPF":{"type":"object","properties":{"value":{"type":"string"},"valid":{"type":"boolean"}}},"Deceased":{"type":"object","properties":{"person":{"$ref":"#/components/schemas/Person"},"additionalInfo":{"$ref":"#/components/schemas/AdditionalSircInfo"}}},"MatchingScore":{"type":"object","properties":{"totalScore":{"type":"number"},"cpfScore":{"type":"number"},"nameScore":{"type":"number"},"birthDateScore":{"type":"number"},"parent1Score":{"type":"number"},"parent2Score":{"type":"number"},"sameGender":{"type":"boolean"}}},"PaymentInfo":{"type":"object","properties":{"orderNumber":{"type":"string"},"yearMonthCode":{"type":"string"},"paymentStatus":{"type":"string","enum":["ABR","AEX","BDB","BTM","DST","EMA","IAC","INC","REA","STM"]}}},"Person":{"type":"object","properties":{"cpf":{"$ref":"#/components/schemas/CPF"},"birthDate":{"type":"string","format":"date"},"gender":{"type":"string","enum":["MASCULINO","FEMININO"]},"name":{"type":"string"},"parent1":{"type":"string"},"parent2":{"type":"string"},"deathDate":{"type":"string","format":"date"},"genderName":{"type":"string"},"cpfvalue":{"type":"string"}}},"Page":{"type":"object","properties":{"totalPages":{"type":"integer","format":"int32"},"totalElements":{"type":"integer","format":"int64"},"size":{"type":"integer","format":"int32"},"content":{"type":"array","items":{}},"number":{"type":"integer","format":"int32"},"sort":{"$ref":"#/components/schemas/SortObject"},"first":{"type":"boolean"},"last":{"type":"boolean"},"numberOfElements":{"type":"integer","format":"int32"},"pageable":{"$ref":"#/components/schemas/PageableObject"},"empty":{"type":"boolean"}}},"PageableObject":{"type":"object","properties":{"offset":{"type":"integer","format":"int64"},"sort":{"$ref":"#/components/schemas/SortObject"},"unpaged":{"type":"boolean"},"paged":{"type":"boolean"},"pageNumber":{"type":"integer","format":"int32"},"pageSize":{"type":"integer","format":"int32"}}},"SortObject":{"type":"object","properties":{"empty":{"type":"boolean"},"unsorted":{"type":"boolean"},"sorted":{"type":"boolean"}}},"DeathDetailsDTO":{"type":"object","properties":{"id":{"type":"string","format":"uuid"},"executionDate":{"type":"string","format":"date"},"operationDateTime":{"type":"string","format":"date-time"},"registrationCode":{"type":"string"},"declarationNumberDeceased":{"type":"string"},"deceasedCertificateIdentifier":{"type":"string"},"registryOfficeCode":{"type":"string"},"ibgeMunicipalityCodeRegistryOffice":{"type":"string"}}},"CrossingDetailsDTO":{"type":"object","properties":{"id":{"type":"string","format":"uuid"},"sigpesPerson":{"$ref":"#/components/schemas/PersonDTO"},"matchingScore":{"$ref":"#/components/schemas/MatchingScoreDTO"}}},"MatchingScoreDTO":{"type":"object","properties":{"totalScore":{"type":"number"},"cpfScore":{"type":"number"},"nameScore":{"type":"number"},"birthDateScore":{"type":"number"},"parent1Score":{"type":"number"},"parent2Score":{"type":"number"},"sameGender":{"type":"boolean"}}},"PersonDTO":{"type":"object","properties":{"cpf":{"type":"string"},"birthDate":{"type":"string","format":"date"},"gender":{"type":"string"},"personName":{"type":"string"},"parent1":{"type":"string"},"parent2":{"type":"string"},"deathDate":{"type":"string","format":"date"}}}}}}